\relax 
\@writefile{toc}{\contentsline {section}{\numberline {1}Introduzione}{1}}
\@writefile{toc}{\contentsline {section}{\numberline {2}Server}{1}}
\@writefile{toc}{\contentsline {subsection}{\numberline {2.1}Core}{1}}
\@writefile{toc}{\contentsline {subsection}{\numberline {2.2}Shell}{2}}
\@writefile{toc}{\contentsline {section}{\numberline {3}Client}{2}}
\@writefile{toc}{\contentsline {section}{\numberline {4}IPC - FIFO}{3}}
\@writefile{toc}{\contentsline {section}{\numberline {5}Features aggiuntive}{4}}
\@writefile{toc}{\contentsline {subsection}{\numberline {5.1}Logging}{4}}
\@writefile{toc}{\contentsline {subsection}{\numberline {5.2}Massive number of clients handling}{4}}
\@writefile{toc}{\contentsline {subsection}{\numberline {5.3}Testing}{4}}
